FirstName,LastName,Email,Country,Message,Date
Princewill,Okeugo,princewillutility@gmail.com,Nigeria,Please we need new movies biko,"Fri, 03 Aug 2018 17:52:58 +0100"
Tolani,Azubuike,azubueyes@yahoo.com,Egypt,,"Fri, 03 Aug 2018 17:59:13 +0100"
Demilade,Adejoorin,adeogo@gmail.com,Nigeria,"We need series to be featured on the site","Fri, 03 Aug 2018 18:11:15 +0100"
